{
          
  "name": "Procter & Gamble",
  "logo": "image.jpg",
  "backgroundcolor": "#aecbd7",
  "id":"5",
  "number": "pg",
  "ruta" : "/logos/",
  "name2": "Meet our team ->",
  "social": {
    "facebook": "https://www.facebook.com/",
    "twitter": "https://twitter.com/",
    "linkedIn": "https://www.linkedin.com/",
    "instagram": "https://www.instagram.com/"
  },
  "members": 
        [
          {
            "name": "Diego Vives",
            "number": "5551",
            "ruta" : "/employees/",
            "skype": {
              "user":"diegovvv"
            }, 
            "social": {
              "facebook": "",
              "twitter": "",
              "linkedIn": "",
              "instagram": ""
            }
        },
        {
            "name": "Andrey Alfaro",
            "number": "5552",
            "ruta" : "/employees/",
            "skype": {
              "user":"andreyal"
            }, 
            "social": {
              "facebook": "",
              "twitter": "",
              "linkedIn": "",
              "instagram": ""
            }
        },
        {
            "name": "Christian Ureña",
            "number": "5553",
            "ruta" : "/employees/",
            "skype": {
              "user":"christian.ure"
            }, 
            "social": {
              "facebook": "",
              "twitter": "",
              "linkedIn": "",
              "instagram": ""
            }

        }
        ,
        {
            "name": "David Sanchez",
            "number": "5554",
            "ruta" : "/employees/",
            "skype": {
              "user":"davind.san"
            }, 
            "social": {
              "facebook": "",
              "twitter": "",
              "linkedIn": "",
              "instagram": ""
            }
        },
        {
            "name": "Jose Valverde",
            "number": "5555",
            "ruta" : "/employees/",
            "skype": {
              "user":"jose.val"
            }, 
            "social": {
              "facebook": "",
              "twitter": "",
              "linkedIn": "",
              "instagram": ""
            }
        },
        {
            "name": "Dennis Hurtado",
            "number": "5556",
            "ruta" : "/employees/",
            "skype": {
              "user":"dennis.hur"
            }, 
            "social": {
              "facebook": "",
              "twitter": "",
              "linkedIn": "",
              "instagram": ""
            }
        },
        {
            "name": "María Chaves",
            "number": "5557",
            "ruta" : "/employees/",
            "skype": {
              "user":"maria.cha"
            }, 
            "social": {
              "facebook": "",
              "twitter": "",
              "linkedIn": "",
              "instagram": ""
            }

        }
      ]

}